Prediction with Generalized Linear Models
…
---

## Peek at `y` and `X`

```r
X[,1:8]
```

```
## # A tibble: 250 x 8
##          x1      x2     x3     x4      x5     x6      x7     x8
##       <dbl>   <dbl>  <dbl>  <dbl>   <dbl>  <dbl>   <dbl>  <dbl>
##  1 -0.00277  0.261   0.458 -0.307  0.0243 -0.980  0.523  -0.633
##  2  1.29    -1.85   -0.575  0.399  0.333  -0.629 -0.245   0.425
##  3  0.00118 -0.748  -0.133 -0.346  0.598  -1.76   0.341  -0.292
##  4 -0.728   -1.27    0.971 -0.555 -0.888   0.601 -1.15   -0.189
##  5  1.12     1.17   -2.21   0.498 -0.404  -0.638  0.722  -0.278
##  6 -0.256   -1.73    1.02   1.04  -0.574   0.538 -0.905   0.103
##  7  0.181   -0.0631  0.649 -0.369 -0.452  -0.858  0.0441 -0.994
##  8 -0.174   -1.14    2.71   1.43  -0.201  -2.27  -0.167   0.475
##  9 -0.172   -1.19    0.363  0.101  0.176   0.533 -1.11    0.964
## 10  0.640    0.423  -0.936 -1.55   0.201   0.333  0.192  -0.670
## # ... with 240 more rows
```
…
### Step-by-step example

create the training data.

```r
library(rsample)

split <- initial_split(Sacramento) 
*train <- training(split)
test  <- testing(split)
```

```
## # A tibble: 699 x 7
##     beds baths  sqft type         price latitude longitude
##    <int> <dbl> <int> <fct>        <int>    <dbl>     <dbl>
##  1     2     1   836 Residential  59222     38.6     -121.
##  2     3     1  1167 Residential  68212     38.5     -121.
##  3     2     1   852 Residential  69307     38.6     -121.
##  4     3     1  1122 Condo        89921     38.7     -121.
##  5     3     2  1104 Residential  90895     38.7     -121.
##  6     3     1  1177 Residential  91002     38.5     -121.
##  7     2     2   941 Condo        94905     38.6     -121.
##  8     3     2  1146 Residential  98937     38.7     -121.
##  9     3     2   909 Residential 100309     38.6     -121.
## 10     3     2  1289 Residential 106250     38.5     -121.
## # ... with 689 more rows
```
…
### Step-by-step example

create the testing data.

```r
library(rsample)

split <- initial_split(Sacramento) 
train <- training(split) 
*test  <- testing(split)
```

```
## # A tibble: 233 x 7
##     beds baths  sqft type         price latitude longitude
##    <int> <dbl> <int> <fct>        <int>    <dbl>     <dbl>
##  1     3     1  1122 Condo        89921     38.7     -121.
##  2     3     2   909 Residential 100309     38.6     -121.
##  3     2     1   844 Residential 113263     38.7     -121.
##  4     2     1   588 Residential 120000     38.6     -121.
##  5     3     1   963 Residential 127281     38.5     -121.
##  6     2     2  1039 Condo       133000     38.4     -121.
##  7     3     2  1380 Residential 136500     38.6     -121.
##  8     3     2  1418 Residential 146250     38.5     -121.
##  9     2     2  1043 Residential 161250     38.7     -121.
## 10     4     2  1587 Residential 161500     38.7     -121.
## # ... with 223 more rows
```
…
